<svg xmlns="http://www.w3.org/2000/svg" width="90" height="90" viewBox="0 0 90 90">
    <g fill="none" fill-rule="nonzero">
        <path fill="#0028A8" d="M66.176 72H21.628v13.5c0 .828.666 1.5 1.485 1.5h41.579c.819 0 1.484-.672 1.484-1.5V72zm-44.548-3h44.548v-9c0-.83.665-1.5 1.485-1.5.821 0 1.485.67 1.485 1.5v25.5c0 2.481-1.998 4.5-4.454 4.5H23.113c-2.456 0-4.454-2.019-4.454-4.5V60c0-.83.664-1.5 1.484-1.5.821 0 1.485.67 1.485 1.5v9zm44.548-54H21.628v9c0 .83-.664 1.5-1.485 1.5-.82 0-1.484-.67-1.484-1.5V4.5c0-2.481 1.998-4.5 4.454-4.5h41.579c2.456 0 4.454 2.019 4.454 4.5V24c0 .83-.664 1.5-1.485 1.5-.82 0-1.485-.67-1.485-1.5v-9zm-44.548-3h44.548V4.5c0-.828-.665-1.5-1.484-1.5H23.113c-.819 0-1.485.672-1.485 1.5V12zm25.244-3h-5.94c-.82 0-1.484-.67-1.484-1.5S40.112 6 40.933 6h5.94c.82 0 1.484.67 1.484 1.5S47.693 9 46.872 9zm-2.97 75c-2.456 0-4.454-2.019-4.454-4.5s1.998-4.5 4.454-4.5c2.457 0 4.455 2.019 4.455 4.5S46.36 84 43.902 84zm0-6c-.819 0-1.484.672-1.484 1.5s.665 1.5 1.484 1.5c.82 0 1.485-.672 1.485-1.5s-.665-1.5-1.485-1.5zM85.5 54.878h-81c-2.481 0-4.5-1.97-4.5-4.39V32.927c0-2.421 2.019-4.39 4.5-4.39h81c2.481 0 4.5 1.969 4.5 4.39v17.56c0 2.422-2.019 4.391-4.5 4.391zm-81-23.415c-.828 0-1.5.656-1.5 1.464v17.56c0 .808.672 1.464 1.5 1.464h81c.828 0 1.5-.656 1.5-1.463V32.927c0-.808-.672-1.464-1.5-1.464h-81z"/>
        <path fill="#07D5AE" d="M72 44.574l-2.87 2.028a1.517 1.517 0 0 1-.879.279c-.464 0-.922-.21-1.215-.605a1.44 1.44 0 0 1 .334-2.043l3.573-2.526-3.573-2.525a1.44 1.44 0 0 1-.334-2.044 1.522 1.522 0 0 1 2.094-.325L72 38.84v-2.986c0-.81.67-1.464 1.5-1.464s1.5.655 1.5 1.464v2.986l2.87-2.027a1.523 1.523 0 0 1 2.094.325 1.44 1.44 0 0 1-.334 2.044l-3.573 2.525 3.573 2.526c.671.473.82 1.389.334 2.043a1.511 1.511 0 0 1-1.215.605c-.305 0-.613-.09-.88-.279L75 44.574v2.987c0 .809-.67 1.463-1.5 1.463S72 48.37 72 47.561v-2.987zm-19.5 0l-2.87 2.028a1.517 1.517 0 0 1-.879.279c-.464 0-.922-.21-1.215-.605a1.44 1.44 0 0 1 .334-2.043l3.573-2.526-3.573-2.525a1.44 1.44 0 0 1-.334-2.044 1.522 1.522 0 0 1 2.094-.325l2.87 2.027v-2.986c0-.81.67-1.464 1.5-1.464s1.5.655 1.5 1.464v2.986l2.87-2.027a1.523 1.523 0 0 1 2.094.325 1.44 1.44 0 0 1-.334 2.044l-3.573 2.525 3.573 2.526c.671.473.82 1.389.334 2.043a1.511 1.511 0 0 1-1.215.605c-.305 0-.613-.09-.88-.279L55.5 44.574v2.987c0 .809-.67 1.463-1.5 1.463s-1.5-.654-1.5-1.463v-2.987zm-18 0l-2.87 2.028a1.517 1.517 0 0 1-.879.279c-.464 0-.922-.21-1.215-.605a1.44 1.44 0 0 1 .334-2.043l3.573-2.526-3.573-2.525a1.44 1.44 0 0 1-.334-2.044 1.522 1.522 0 0 1 2.094-.325l2.87 2.027v-2.986c0-.81.67-1.464 1.5-1.464s1.5.655 1.5 1.464v2.986l2.87-2.027a1.524 1.524 0 0 1 2.094.325 1.44 1.44 0 0 1-.334 2.044l-3.573 2.525 3.573 2.526c.671.473.82 1.389.334 2.043a1.511 1.511 0 0 1-1.215.605c-.305 0-.613-.09-.88-.279L37.5 44.574v2.987c0 .809-.67 1.463-1.5 1.463s-1.5-.654-1.5-1.463v-2.987zm-19.5 0l-2.87 2.028a1.517 1.517 0 0 1-.879.279c-.464 0-.922-.21-1.215-.605a1.44 1.44 0 0 1 .334-2.043l3.573-2.526-3.573-2.525a1.44 1.44 0 0 1-.334-2.044 1.522 1.522 0 0 1 2.094-.325L15 38.84v-2.986c0-.81.67-1.464 1.5-1.464s1.5.655 1.5 1.464v2.986l2.87-2.027a1.523 1.523 0 0 1 2.094.325 1.44 1.44 0 0 1-.334 2.044l-3.573 2.525 3.573 2.526c.671.473.82 1.389.334 2.043a1.511 1.511 0 0 1-1.215.605c-.305 0-.613-.09-.88-.279L18 44.574v2.987c0 .809-.67 1.463-1.5 1.463S15 48.37 15 47.561v-2.987z"/>
    </g>
</svg>
